<?xml version="1.0" encoding="UTF-8"?>
<session version="1.0">
<refactoring comment="Move &apos;lock.png&apos; to &apos;Notes&apos;" description="Move &apos;lock.png&apos; to &apos;Notes&apos;" destination="Notes" element1="src/zz_Images/ac_login/lock.png" flags="7" id="org.eclipse.ltk.core.refactoring.move.resources" resources="1" stamp="1538893632308" updateReferences="true"/>
</session>